…
    ## 
    ## $trusts
    ## [1] 24282644
    ## 
    ## $analyses
    ## [1] 8400397
    ## 
    ## $certificates
    ## [1] 15206328
    ## 
    ## $pendingScansCount
    ## [1] 0
    ## 
    ## $last24HoursScansCount
    ## # A tibble: 25 × 2
    ##                    hour count
    ## *                 <chr> <int>
    ## 1  2017-05-14T11:00:00Z   519
    ## 2  2017-05-14T10:00:00Z  1443
    ## 3  2017-05-14T09:00:00Z  1437
    ## 4  2017-05-14T08:00:00Z  1478
    ## 5  2017-05-14T07:00:00Z  1429
    ## 6  2017-05-14T06:00:00Z  1442
    ## 7  2017-05-14T05:00:00Z  1456
    ## 8  2017-05-14T04:00:00Z  1376
    ## 9  2017-05-14T03:00:00Z  1736
    ## 10 2017-05-14T02:00:00Z  1440
    ## # ... with 15 more rows
    ## 
    ## $distinctTargetsLast24Hours
    ## [1] 34502
    ## 
    ## $distinctCertsSeenLast24Hours
    ## [1] 99757
    ## 
    ## $distinctCertsAddedLast24Hours
…
